{
    "isSessionExpired": "N",
    "isActivated": "Y",
    "serverTime": "2020-07-11 16:15:46",
    "hasNext": true,
    "currentPage": 1,
    "totalPage": 100,
    "totalCount": 1000,
    "requestId": "0a73699a20071116150233",
    "isSuccess": "Y",
    "goodsList": [
        {
            "type": "1",
            "productId": "9140195861",
            "skuId": "1130825802",
            "goodsName": "良品铺子手撕面包1050g 早餐小面包饼干蛋糕孕妇休闲零食",
            "productImgURL": "http://gfs17.gomein.net.cn/T1LgE5BCDT1RCvBVdK_400.jpg",
            "skuNo": "710002687",
            "isBbc": "N",
            "c3id": "cat16035550",
            "sapSkuType": "BHS",
            "shopId": "A0IF",
            "shopType": "pshop",
            "shopName": "北京大中密东广场店",
            "shopImgUrl": null,
            "shopLogoUrl": "http://gfs10.gomein.net.cn/T124E4BTCv1RCvBVdK.png",
            "shopDetailUrl": "http://m.gome.com.cn/shops/home/A0IF.html",
            "productDetailUrl": "http://item.gome.com.cn/9140195861-1130825802.html?intcmp=grec3031100-0-1_1_0a73699a20071116150233&stid=A0IF",
            "price": "20.90",
            "priceDesc": "¥20.90",
            "promoType": "ZP01",
            "promotionId": null,
            "scheme_type_id": "0"
        },
        {
            "type": "1",
            "productId": "9140204938",
            "skuId": "1130825803",
            "goodsName": "良品铺子肉松饼380g 营养早餐面包糕点点心饼干",
            "productImgURL": "http://gfs17.gomein.net.cn/T17eJ5B7Ev1RCvBVdK_400.jpg",
            "skuNo": "710002686",
            "isBbc": "N",
            "c3id": "cat16035550",
            "sapSkuType": "BHS",
            "shopId": "A0GZ",
            "shopType": "pshop",
            "shopName": "北京大中门头沟店",
            "shopImgUrl": null,
            "shopLogoUrl": "http://gfs10.gomein.net.cn/T124E4BTCv1RCvBVdK.png",
            "shopDetailUrl": "http://m.gome.com.cn/shops/home/A0GZ.html",
            "productDetailUrl": "http://item.gome.com.cn/9140204938-1130825803.html?intcmp=grec3031100-0-1_2_0a73699a20071116150233&stid=A0GZ",
            "price": "11.90",
            "priceDesc": "¥11.90",
            "promoType": "ZP01",
            "promotionId": null,
            "scheme_type_id": "0"
        },
        {
            "type": "1",
            "productId": "9140197057",
            "skuId": "1130808668",
            "goodsName": "榄菊蚊香大盘40单圈/筒 艾草清香型家用室内驱蚊黑蚊香盘式防蚊子灭蚊盘香",
            "productImgURL": "http://gfs17.gomein.net.cn/T19m_5B7Wv1RCvBVdK_400.jpg",
            "skuNo": "710001388",
            "isBbc": "N",
            "c3id": "cat15985544",
            "sapSkuType": "BHS",
            "shopId": "A0HU",
            "shopType": "pshop",
            "shopName": "北京大中玉泉路新店",
            "shopImgUrl": null,
            "shopLogoUrl": "http://gfs10.gomein.net.cn/T124E4BTCv1RCvBVdK.png",
            "shopDetailUrl": "http://m.gome.com.cn/shops/home/A0HU.html",
            "productDetailUrl": "http://item.gome.com.cn/9140197057-1130808668.html?intcmp=grec3031100-0-1_3_0a73699a20071116150233&stid=A0HU",
            "price": "9.90",
            "priceDesc": "¥9.90",
            "promoType": "ZP01",
            "promotionId": null,
            "scheme_type_id": "0"
        },
        {
            "type": "1",
            "productId": "9140190966",
            "skuId": "1130808674",
            "goodsName": "雷达电蚊香112晚+无线加热器灭蚊液*2 国美超市甄选",
            "productImgURL": "http://gfs17.gomein.net.cn/T1i6D5BbDv1RCvBVdK_400.jpg",
            "skuNo": "710001387",
            "isBbc": "N",
            "c3id": "cat15985544",
            "sapSkuType": "BHS",
            "shopId": "A0HE",
            "shopType": "pshop",
            "shopName": "北京大中石景山店",
            "shopImgUrl": null,
            "shopLogoUrl": "http://gfs10.gomein.net.cn/T124E4BTCv1RCvBVdK.png",
            "shopDetailUrl": "http://m.gome.com.cn/shops/home/A0HE.html",
            "productDetailUrl": "http://item.gome.com.cn/9140190966-1130808674.html?intcmp=grec3031100-0-1_4_0a73699a20071116150233&stid=A0HE",
            "price": "19.90",
            "priceDesc": "¥19.90",
            "promoType": "ZP01",
            "promotionId": null,
            "scheme_type_id": "0"
        },
        {
            "type": "1",
            "productId": "9140193265",
            "skuId": "1130808679",
            "goodsName": "枪手无味杀蚊杀虫气喷雾600ml 国美超市甄选",
            "productImgURL": "http://gfs17.gomein.net.cn/T1xPV5B4dT1RCvBVdK_400.jpg",
            "skuNo": "710001382",
            "isBbc": "N",
            "c3id": "cat15985544",
            "sapSkuType": "BHS",
            "shopId": "A01I",
            "shopType": "pshop",
            "shopName": "北京国美管庄环岛店",
            "shopImgUrl": null,
            "shopLogoUrl": "http://gfs10.gomein.net.cn/T1kXb4BCZg1RCvBVdK.png",
            "shopDetailUrl": "http://m.gome.com.cn/shops/home/A01I.html",
            "productDetailUrl": "http://item.gome.com.cn/9140193265-1130808679.html?intcmp=grec3031100-0-1_5_0a73699a20071116150233&stid=A01I",
            "price": "21.90",
            "priceDesc": "¥21.90",
            "promoType": "ZP01",
            "promotionId": null,
            "scheme_type_id": "0"
        },
        {
            "type": "1",
            "productId": "9140195946",
            "skuId": "1130825819",
            "goodsName": "三只松鼠乳酸菌小伴侣面包520g 国美超市甄选",
            "productImgURL": "http://gfs17.gomein.net.cn/T1CTD5BbdT1RCvBVdK_400.jpg",
            "skuNo": "710002670",
            "isBbc": "N",
            "c3id": "cat16035550",
            "sapSkuType": "BHS",
            "shopId": "A013",
            "shopType": "pshop",
            "shopName": "北京国美公主坟店",
            "shopImgUrl": null,
            "shopLogoUrl": "http://gfs10.gomein.net.cn/T1kXb4BCZg1RCvBVdK.png",
            "shopDetailUrl": "http://m.gome.com.cn/shops/home/A013.html",
            "productDetailUrl": "http://item.gome.com.cn/9140195946-1130825819.html?intcmp=grec3031100-0-1_6_0a73699a20071116150233&stid=A013",
            "price": "23.00",
            "priceDesc": "¥23.00",
            "promoType": "ZP01",
            "promotionId": null,
            "scheme_type_id": "0"
        },
        {
            "type": "1",
            "productId": "9140190967",
            "skuId": "1130808665",
            "goodsName": "榄菊电蚊香片灭蚊片75片+加热器 无香型 驱蚊灭蚊 电热蚊香片",
            "productImgURL": "http://gfs17.gomein.net.cn/T1xcV5BCWv1RCvBVdK_400.jpg",
            "skuNo": "710001390",
            "isBbc": "N",
            "c3id": "cat15985544",
            "sapSkuType": "BHS",
            "shopId": "A003",
            "shopType": "pshop",
            "shopName": "北京国美六里桥店",
            "shopImgUrl": null,
            "shopLogoUrl": "http://gfs10.gomein.net.cn/T1kXb4BCZg1RCvBVdK.png",
            "shopDetailUrl": "http://m.gome.com.cn/shops/home/A003.html",
            "productDetailUrl": "http://item.gome.com.cn/9140190967-1130808665.html?intcmp=grec3031100-0-1_7_0a73699a20071116150233&stid=A003",
            "price": "20.00",
            "priceDesc": "¥20.00",
            "promoType": "ZP01",
            "promotionId": null,
            "scheme_type_id": "0"
        },
        {
            "type": "1",
            "productId": "9140198609",
            "skuId": "1130825809",
            "goodsName": "好丽友巧克力派2枚装68g 国美超市甄选",
            "productImgURL": "http://gfs17.gomein.net.cn/T1D7h5BTLT1RCvBVdK_400.jpg",
            "skuNo": "710002680",
            "isBbc": "N",
            "c3id": "cat16035550",
            "sapSkuType": "BHS",
            "shopId": "A0H1",
            "shopType": "pshop",
            "shopName": "北京大中牛街店",
            "shopImgUrl": null,
            "shopLogoUrl": "http://gfs10.gomein.net.cn/T124E4BTCv1RCvBVdK.png",
            "shopDetailUrl": "http://m.gome.com.cn/shops/home/A0H1.html",
            "productDetailUrl": "http://item.gome.com.cn/9140198609-1130825809.html?intcmp=grec3031100-0-1_8_0a73699a20071116150233&stid=A0H1",
            "price": "3.90",
            "priceDesc": "¥3.90",
            "promoType": "ZP01",
            "promotionId": null,
            "scheme_type_id": "0"
        },
        {
            "type": "1",
            "productId": "9140194745",
            "skuId": "1130808676",
            "goodsName": "雷达替换装无香型防蚊液168晚*3 国美超市甄选",
            "productImgURL": "http://gfs17.gomein.net.cn/T1B2h5BgxT1RCvBVdK_400.jpg",
            "skuNo": "710001385",
            "isBbc": "N",
            "c3id": "cat15985544",
            "sapSkuType": "BHS",
            "shopId": "A0IN",
            "shopType": "pshop",
            "shopName": "北京大中平谷府前街店",
            "shopImgUrl": null,
            "shopLogoUrl": "http://gfs10.gomein.net.cn/T124E4BTCv1RCvBVdK.png",
            "shopDetailUrl": "http://m.gome.com.cn/shops/home/A0IN.html",
            "productDetailUrl": "http://item.gome.com.cn/9140194745-1130808676.html?intcmp=grec3031100-0-1_9_0a73699a20071116150233&stid=A0IN",
            "price": "18.90",
            "priceDesc": "¥18.90",
            "promoType": "ZP01",
            "promotionId": null,
            "scheme_type_id": "0"
        },
        {
            "type": "1",
            "productId": "9140203132",
            "skuId": "1130822189",
            "goodsName": "港荣港荣蒸蛋糕奶香味900g 营养早餐食品手撕面包口袋吐司休闲零食小吃",
            "productImgURL": "http://gfs17.gomein.net.cn/T1hvK5BXxv1RCvBVdK_400.jpg",
            "skuNo": "710001172",
            "isBbc": "N",
            "c3id": "cat16035550",
            "sapSkuType": "BHS",
            "shopId": "A0NY",
            "shopType": "ashop",
            "shopName": "北京大中石窝新零售店",
            "shopImgUrl": null,
            "shopLogoUrl": "http://gfs10.gomein.net.cn/T124E4BTCv1RCvBVdK.png",
            "shopDetailUrl": "http://m.gome.com.cn/shops/home/A0NY.html",
            "productDetailUrl": "http://item.gome.com.cn/9140203132-1130822189.html?intcmp=grec3031100-0-1_10_0a73699a20071116150233&stid=A0NY",
            "price": "0.00",
            "priceDesc": "暂无价格",
            "promoType": "NO_PRICE",
            "scheme_type_id": "0"
        }
    ]
}